<svg xmlns="http://www.w3.org/2000/svg" xmlns:xlink="http://www.w3.org/1999/xlink" viewBox="0 0 171.94 322.79">
  <defs>
    <linearGradient id="gradient_color_34" data-name="gradient color 34" x1="537.89" y1="148.39" x2="524.52" y2="117.86" gradientUnits="userSpaceOnUse">
      <stop offset="0" stop-color="#dbd7f3"/>
      <stop offset="1" stop-color="#dcb2ff"/>
    </linearGradient>
    <linearGradient id="gradient_color_71" data-name="gradient color 71" x1="603.18" y1="270.11" x2="603.18" y2="194.44" gradientUnits="userSpaceOnUse">
      <stop offset="0.02" stop-color="#ffc2a9"/>
      <stop offset="1" stop-color="#ff9595"/>
    </linearGradient>
    <linearGradient id="gradient_color_45" data-name="gradient color 45" x1="591.76" y1="231.11" x2="591.76" y2="222.35" gradientUnits="userSpaceOnUse">
      <stop offset="0" stop-color="#ff817f"/>
      <stop offset="1" stop-color="#cf6074"/>
    </linearGradient>
    <linearGradient id="gradient_color_45-2" x1="594.15" y1="216.31" x2="594.15" y2="213.41" xlink:href="#gradient_color_45"/>
    <linearGradient id="gradient_color_45-3" x1="600.95" y1="213.41" x2="600.95" y2="212.12" xlink:href="#gradient_color_45"/>
    <linearGradient id="gradient_color_45-4" x1="608.13" y1="212.57" x2="608.13" y2="211.77" xlink:href="#gradient_color_45"/>
    <linearGradient id="gradient_color_99" data-name="gradient color 99" x1="571.06" y1="202.07" x2="571.06" y2="194.87" gradientUnits="userSpaceOnUse">
      <stop offset="0" stop-color="#ffa7a7"/>
      <stop offset="0.98" stop-color="#ffc2a9"/>
    </linearGradient>
    <linearGradient id="gradient_color_97" data-name="gradient color 97" x1="626.35" y1="396.54" x2="626.35" y2="370.68" gradientUnits="userSpaceOnUse">
      <stop offset="0" stop-color="#979dd3"/>
      <stop offset="1" stop-color="#9486a4"/>
    </linearGradient>
    <linearGradient id="gradient_color_71-2" x1="612.65" y1="241.55" x2="612.65" y2="101.68" xlink:href="#gradient_color_71"/>
    <linearGradient id="gradient_color_303" data-name="gradient color 303" x1="608.38" y1="224.58" x2="608.38" y2="147.65" gradientUnits="userSpaceOnUse">
      <stop offset="0.01" stop-color="#f48781"/>
      <stop offset="1" stop-color="#ef7a8e"/>
    </linearGradient>
    <linearGradient id="gradient_color_64" data-name="gradient color 64" x1="613.82" y1="194.45" x2="613.82" y2="100.85" gradientUnits="userSpaceOnUse">
      <stop offset="0" stop-color="#8c1170"/>
      <stop offset="1" stop-color="#dd4065"/>
    </linearGradient>
    <linearGradient id="gradient_color_41" data-name="gradient color 41" x1="633.69" y1="136.79" x2="633.69" y2="107.19" gradientUnits="userSpaceOnUse">
      <stop offset="0" stop-color="#ccb8ff"/>
      <stop offset="1" stop-color="#af8bc2"/>
    </linearGradient>
    <linearGradient id="gradient_color_51" data-name="gradient color 51" x1="595.34" y1="159.5" x2="595.34" y2="119.29" gradientUnits="userSpaceOnUse">
      <stop offset="0" stop-color="#c1117c"/>
      <stop offset="1" stop-color="#dd4065"/>
    </linearGradient>
    <linearGradient id="gradient_color_41-2" x1="613.82" y1="194.13" x2="613.82" y2="107.19" xlink:href="#gradient_color_41"/>
    <linearGradient id="gradient_color_58" data-name="gradient color 58" x1="637.08" y1="123.08" x2="637.08" y2="77.3" gradientUnits="userSpaceOnUse">
      <stop offset="0" stop-color="#b9116b"/>
      <stop offset="1" stop-color="#dd4065"/>
    </linearGradient>
    <linearGradient id="gradient_color_340" data-name="gradient color 340" x1="551.34" y1="340.44" x2="551.34" y2="187.43" gradientUnits="userSpaceOnUse">
      <stop offset="0" stop-color="#f77"/>
      <stop offset="0.98" stop-color="#ffc2a9"/>
    </linearGradient>
    <linearGradient id="gradient_color_30" data-name="gradient color 30" x1="539.19" y1="261.39" x2="539.19" y2="247.13" gradientUnits="userSpaceOnUse">
      <stop offset="0.02" stop-color="#ffa58b"/>
      <stop offset="1" stop-color="#ff898e"/>
    </linearGradient>
    <linearGradient id="gradient_color_264" data-name="gradient color 264" x1="546.43" y1="255.08" x2="546.43" y2="189.99" gradientUnits="userSpaceOnUse">
      <stop offset="0" stop-color="#b9acf4"/>
      <stop offset="1" stop-color="#e1d1f5"/>
    </linearGradient>
    <linearGradient id="gradient_color_25" data-name="gradient color 25" x1="617.06" y1="381.19" x2="617.06" y2="220.68" gradientUnits="userSpaceOnUse">
      <stop offset="0" stop-color="#8642a0"/>
      <stop offset="1" stop-color="#6456c0"/>
    </linearGradient>
    <linearGradient id="gradient_color_325" data-name="gradient color 325" x1="604.71" y1="183.25" x2="604.71" y2="173.42" gradientUnits="userSpaceOnUse">
      <stop offset="0" stop-color="#db5f69"/>
      <stop offset="1" stop-color="#dc505e"/>
    </linearGradient>
    <linearGradient id="gradient_color_325-2" x1="604.14" y1="186.81" x2="604.14" y2="170.26" xlink:href="#gradient_color_325"/>
    <linearGradient id="gradient_color_67" data-name="gradient color 67" x1="608.9" y1="190.94" x2="608.9" y2="184.6" gradientUnits="userSpaceOnUse">
      <stop offset="0" stop-color="#ff9595"/>
      <stop offset="0.98" stop-color="#ffc2a9"/>
    </linearGradient>
    <linearGradient id="gradient_color_66" data-name="gradient color 66" x1="606.61" y1="184.41" x2="606.61" y2="164.26" xlink:href="#gradient_color_67"/>
    <linearGradient id="gradient_color_45-5" x1="614.92" y1="191.02" x2="614.92" y2="184.6" xlink:href="#gradient_color_45"/>
    <linearGradient id="gradient_color_41-3" x1="637.08" y1="123.08" x2="637.08" y2="78.6" xlink:href="#gradient_color_41"/>
    <linearGradient id="gradient_color_41-4" x1="640.55" y1="101.19" x2="640.55" y2="86.89" xlink:href="#gradient_color_41"/>
    <linearGradient id="gradient_color_41-5" x1="638.13" y1="94.5" x2="638.13" y2="77.21" xlink:href="#gradient_color_41"/>
    <linearGradient id="gradient_color_41-6" x1="639.19" y1="234.18" x2="639.19" y2="220.68" xlink:href="#gradient_color_41"/>
    <linearGradient id="gradient_color_41-7" x1="617.06" y1="381.21" x2="617.06" y2="244.54" xlink:href="#gradient_color_41"/>
    <linearGradient id="gradient_color_41-8" x1="590.88" y1="291.53" x2="590.88" y2="227.43" xlink:href="#gradient_color_41"/>
    <linearGradient id="gradient_color_41-9" x1="597.7" y1="245.91" x2="597.7" y2="227.43" xlink:href="#gradient_color_41"/>
    <linearGradient id="gradient_color_41-10" x1="592.27" y1="291.08" x2="592.27" y2="240.68" xlink:href="#gradient_color_41"/>
    <linearGradient id="gradient_color_160" data-name="gradient color 160" x1="548.13" y1="251.86" x2="548.13" y2="189.99" gradientUnits="userSpaceOnUse">
      <stop offset="0" stop-color="#9c91de"/>
      <stop offset="1" stop-color="#cf95ff"/>
    </linearGradient>
    <linearGradient id="gradient_color_25-2" x1="45.17" y1="170.48" x2="72.84" y2="170.48" xlink:href="#gradient_color_25"/>
    <linearGradient id="gradient_color_9" data-name="gradient color 9" x1="548.55" y1="247.71" x2="548.55" y2="194.11" gradientUnits="userSpaceOnUse">
      <stop offset="0" stop-color="#fff"/>
      <stop offset="1" stop-color="#c0d6ff"/>
    </linearGradient>
    <linearGradient id="gradient_color_41-11" x1="626.48" y1="229.46" x2="626.48" y2="224.71" xlink:href="#gradient_color_41"/>
    <linearGradient id="gradient_color_45-6" x1="535.69" y1="244.96" x2="535.69" y2="232.26" xlink:href="#gradient_color_45"/>
    <linearGradient id="gradient_color_143" data-name="gradient color 143" x1="588.5" y1="159.56" x2="588.5" y2="148.09" gradientUnits="userSpaceOnUse">
      <stop offset="0" stop-color="#009cff"/>
      <stop offset="1" stop-color="#905995"/>
    </linearGradient>
    <linearGradient id="gradient_color_146" data-name="gradient color 146" x1="589.95" y1="129.19" x2="589.95" y2="101.57" gradientUnits="userSpaceOnUse">
      <stop offset="0" stop-color="#f7f9ff"/>
      <stop offset="1" stop-color="#af8bc2"/>
    </linearGradient>
    <linearGradient id="gradient_color_41-12" x1="590.15" y1="149.14" x2="590.15" y2="126.05" xlink:href="#gradient_color_41"/>
    <linearGradient id="gradient_color_147" data-name="gradient color 147" x1="618.72" y1="110.82" x2="618.72" y2="78.22" gradientUnits="userSpaceOnUse">
      <stop offset="0" stop-color="#af8bc2"/>
      <stop offset="1" stop-color="#f7f9ff"/>
    </linearGradient>
    <linearGradient id="gradient_color_152" data-name="gradient color 152" x1="598.82" y1="331.58" x2="611.14" y2="338.41" gradientUnits="userSpaceOnUse">
      <stop offset="0" stop-color="#7540ff"/>
      <stop offset="1"/>
    </linearGradient>
    <linearGradient id="gradient_color_65" data-name="gradient color 65" x1="631.55" y1="224.58" x2="631.55" y2="186.01" gradientUnits="userSpaceOnUse">
      <stop offset="0" stop-color="#dd4065"/>
      <stop offset="1" stop-color="#8c1170"/>
    </linearGradient>
    <linearGradient id="gradient_color_65-2" x1="642.94" y1="211.33" x2="642.94" y2="189.99" xlink:href="#gradient_color_65"/>
    <linearGradient id="gradient_color_41-13" x1="612.2" y1="160.84" x2="640.28" y2="160.84" xlink:href="#gradient_color_41"/>
    <linearGradient id="gradient_color_41-14" x1="623.55" y1="178.94" x2="663.2" y2="178.94" xlink:href="#gradient_color_41"/>
    <linearGradient id="gradient_color_65-3" x1="635.96" y1="231.21" x2="635.96" y2="191.45" xlink:href="#gradient_color_65"/>
    <linearGradient id="gradient_color_160-2" x1="521.02" y1="213.27" x2="528.09" y2="213.27" xlink:href="#gradient_color_160"/>
    <linearGradient id="gradient_color_160-3" x1="527.71" y1="221.93" x2="531.69" y2="221.93" xlink:href="#gradient_color_160"/>
    <linearGradient id="gradient_color_171" data-name="gradient color 171" x1="529.7" y1="196.01" x2="544.35" y2="196.01" gradientUnits="userSpaceOnUse">
      <stop offset="0" stop-color="#7f6dde"/>
      <stop offset="1" stop-color="#865eff"/>
    </linearGradient>
    <linearGradient id="gradient_color_264-2" x1="537.25" y1="198.49" x2="537.25" y2="194.36" xlink:href="#gradient_color_264"/>
    <linearGradient id="gradient_color_174" data-name="gradient color 174" x1="59.95" y1="168.13" x2="59.95" y2="165.37" gradientUnits="userSpaceOnUse">
      <stop offset="0" stop-color="#00d6ff"/>
      <stop offset="1" stop-color="#6fffff"/>
    </linearGradient>
    <linearGradient id="gradient_color_41-15" x1="627.6" y1="93.39" x2="651.87" y2="93.39" xlink:href="#gradient_color_41"/>
    <linearGradient id="gradient_color_41-16" x1="648.62" y1="327.85" x2="665.38" y2="327.85" xlink:href="#gradient_color_41"/>
    <radialGradient id="gradient_color_334" data-name="gradient color 334" cx="596.28" cy="334.29" r="21.7" gradientUnits="userSpaceOnUse">
      <stop offset="0" stop-color="#009cff"/>
      <stop offset="1" stop-color="#9059ae"/>
    </radialGradient>
    <linearGradient id="gradient_color_336" data-name="gradient color 336" x1="574.12" y1="400" x2="574.12" y2="374.28" gradientUnits="userSpaceOnUse">
      <stop offset="0" stop-color="#9059ae"/>
      <stop offset="1" stop-color="#009cff"/>
    </linearGradient>
    <linearGradient id="gradient_color_350" data-name="gradient color 350" x1="622.79" y1="341.48" x2="622.79" y2="331.16" gradientUnits="userSpaceOnUse">
      <stop offset="0" stop-color="#8642a0"/>
      <stop offset="0.52" stop-color="#6365d1"/>
      <stop offset="1" stop-color="#64abfe"/>
    </linearGradient>
    <linearGradient id="gradient_color_350-2" x1="595.73" y1="376.92" x2="595.73" y2="364.56" xlink:href="#gradient_color_350"/>
    <linearGradient id="gradient_color_143-2" x1="652.77" y1="189.99" x2="652.77" y2="135.48" xlink:href="#gradient_color_143"/>
    <linearGradient id="gradient_color_143-3" x1="641.58" y1="231.21" x2="641.58" y2="214.73" xlink:href="#gradient_color_143"/>
    <linearGradient id="gradient_color_143-4" x1="656.77" y1="234.18" x2="656.77" y2="220.93" xlink:href="#gradient_color_143"/>
    <linearGradient id="gradient_color_13" data-name="gradient color 13" x1="538.41" y1="224.91" x2="565.38" y2="224.91" gradientUnits="userSpaceOnUse">
      <stop offset="0" stop-color="#fff"/>
      <stop offset="1" stop-color="#af8bc2"/>
    </linearGradient>
    <linearGradient id="gradient_color_160-4" x1="538.91" y1="139.22" x2="527.75" y2="113.75" xlink:href="#gradient_color_160"/>
    <linearGradient id="gradient_color_34-2" x1="519.32" y1="191.49" x2="506.41" y2="162.03" xlink:href="#gradient_color_34"/>
    <linearGradient id="gradient_color_160-5" x1="555.87" y1="180.05" x2="538.56" y2="140.54" xlink:href="#gradient_color_160"/>
    <linearGradient id="gradient_color_160-6" x1="581.08" y1="252.96" x2="576.87" y2="243.35" gradientTransform="translate(-18.42 328.22) rotate(-36.8)" xlink:href="#gradient_color_160"/>
    <linearGradient id="gradient_color_34-3" x1="536.98" y1="189.89" x2="530.81" y2="175.8" xlink:href="#gradient_color_34"/>
    <linearGradient id="gradient_color_160-7" x1="573.38" y1="243.23" x2="564.8" y2="223.64" gradientTransform="translate(-35.61 242) rotate(-27.37)" xlink:href="#gradient_color_160"/>
  </defs>
  <g style="isolation: isolate">
    <g id="Couple">
      <g>
        <g>
          <g>
            <path d="M609.09,241.81s-7.73,1-10.63,0-11.87-6.76-12.56-8.83S588,222.35,588,222.35s-4.55-6.36-7.87-9-6.35-4.55-9.11-8.14-4.48-9.53-2.21-10.77c1-.52,8.84,9.39,13.67,13.94a34.8,34.8,0,0,0,9.53,6.49s3.2-2.07,5.19-2.35l2,.56a19.14,19.14,0,0,1,5.53-1.18l1.24.55s2.9-1,4.76-.62c0,0,2.69,2.49,5.41,11.32a42.15,42.15,0,0,1,2,14.08s13.25,18.5,20.57,25.27c0,0-2.49,5.94-8.7,7.59Z" transform="translate(-503.73 -77.21)" style="fill: url(#gradient_color_71)"/>
            <path d="M588,222.35s6.25,5.93,7.87,8.76l-3.93-.48s.62-2.32,0-3.65-4.23-3.7-4.23-3.7Z" transform="translate(-503.73 -77.21)" style="fill: url(#gradient_color_45)"/>
            <path d="M592,214.89l4.34,1.42s-1.28-3.1-1.7-2.89S592,214.89,592,214.89Z" transform="translate(-503.73 -77.21)" style="fill: url(#gradient_color_45-2)"/>
            <path d="M599.15,213.1l2.45.31,1.14-1.29Z" transform="translate(-503.73 -77.21)" style="fill: url(#gradient_color_45-3)"/>
            <path d="M605.92,212.47a5.71,5.71,0,0,0,2,0c.88-.2,2.42-.68,2.42-.68A11.39,11.39,0,0,0,605.92,212.47Z" transform="translate(-503.73 -77.21)" style="fill: url(#gradient_color_45-4)"/>
            <path d="M568.26,197.72s1.35,3.42,2.75,4.19,2.81-1.51,2.85-2.09-3.37-5.11-4.23-4.95S568.32,197,568.26,197.72Z" transform="translate(-503.73 -77.21)" style="fill: url(#gradient_color_99)"/>
          </g>
          <path d="M591.87,350.39s-10.88,15.16-15.3,25.26S570.28,400,570.28,400H675.67s-7.64-29.4-15.41-43S591.87,350.39,591.87,350.39Z" transform="translate(-503.73 -77.21)" style="fill: #542a8d"/>
          <path d="M578,374.28s36.7,11,49.06,13.25c19.19,3.51,47.73,9,47.73,9s-4.36-17.94-8.32-25.86l-87.77.68Z" transform="translate(-503.73 -77.21)" style="opacity: 0.6900000000000001;mix-blend-mode: multiply;fill: url(#gradient_color_97)"/>
          <path d="M596.84,106.54s-18.57,11.93-23.5,21.79-2.84,18.75-1.13,24.44,7.77,15.44,8.33,18.85-.44,9.92.19,13.17c.57,2.94,11.5,18,23.25,23.5a40.43,40.43,0,0,0,13.32-5.5,36.69,36.69,0,0,1,2.84,17.62s-3.22,5.31-11.55,9.1-23.69,7.57-27.67,11.36a418.82,418.82,0,0,0,47.94,0c26.34-1.51,25.2-13.83,25.2-13.83s-10.23-4.73-12.88-9.66-5.12-18.19-4.17-21.6,15.34-28,17.43-42.25-1.33-34.87-10.8-44S615,99,596.84,106.54Z" transform="translate(-503.73 -77.21)" style="fill: url(#gradient_color_71-2)"/>
          <path d="M576.57,162.57s11.24,2.82,16.54,9.05S605.49,197.4,606,200s-2,8.29-2,8.29,9-2.28,13.32-5.5a31,31,0,0,1,2.46,8.54s1.9-5.53,4.68-8.22c0,0,6.82,10.35,10.36,15.66s7.13,5.81,7.13,5.81l2.62-3.41s-6.3-3.49-8.66-13.81a100,100,0,0,1-2.61-15.91l-19.46-36.34L583,147.65l-10.8,5.12Z" transform="translate(-503.73 -77.21)" style="fill: url(#gradient_color_303)"/>
          <path d="M663.2,169.51A30.85,30.85,0,0,1,652,183.08c-2.37,1.49-5.31,3.57-8,5.55l-.12.08-.09.06-.31.23c-2.81,2.06-5.29,4-6.47,4.88l-.7.55.51-.5,1.84-1.79-3.34,2-.56.33a15,15,0,0,1-3.13-.87h-.05l-1.26-.51c-.16-.06-.31-.14-.47-.21a60.27,60.27,0,0,1-6.27-3.32l.25-.27,1.22-1.34,1.74-1.89a40.9,40.9,0,0,1-5.2,1.4h0a7.17,7.17,0,0,1-2.34.11,9,9,0,0,1-4.53-2.94h0a43.17,43.17,0,0,0-.69-6.95c0-.21-.09-.42-.14-.63s-.14-.58-.22-.89c-1.37-5.11-3.26-8.92-5.63-10.72l-.1-.06a5.16,5.16,0,0,0-3.88-1h0l-.5.1a7.18,7.18,0,0,0-4,2.46l-.05.06a9.87,9.87,0,0,0-1.81,6.1l-.13-.25-.07-.13c-.73-1.41-3.42-6.5-5.82-10.58h0a28,28,0,0,0-3.63-5.32,11.43,11.43,0,0,0-4-1.32c-4.34-.91-10.56-1.5-11.32-1.57h-.08c-4.95-3.66-9.64-14.72-7.75-17.76a25.38,25.38,0,0,1,3.6-4.17c1.33-1.29,2.55-2.32,2.92-2.63l.12-.1c1.32-2.16,5.87-17.73,12.69-21.33s28.51-7,28.51-7c11.74,1.35,20,4.08,25.84,7.08,10.85,5.58,13.1,12.06,13.1,12.06,1.9,8.72,7.2,21.79,9.67,31.26A66,66,0,0,1,663.2,169.51Z" transform="translate(-503.73 -77.21)" style="fill: url(#gradient_color_64)"/>
          <path d="M612.65,107.19,615,118.73l7.66,2.72,1.1,5.16,1.28.82,1.95,5.35s15,5.9,22.18,3.38,5.31-5.94,5.31-5.94L651.59,120s-1.64-4-4.54-5.81S612.65,107.19,612.65,107.19Z" transform="translate(-503.73 -77.21)" style="opacity: 0.9;mix-blend-mode: multiply;fill: url(#gradient_color_41)"/>
          <path d="M565,141.54s3,12.68,4.65,14.45,18.06,4.29,22.86,3.28,24.13-15.15,26.27-18.69,7-20.41,7-20.41l-2.12-.88s-6.74,16.65-9.76,20.11-23.49,14.44-28.92,16.08-12.38.38-13.77-.5S566,141.84,566,141.84Z" transform="translate(-503.73 -77.21)" style="fill: url(#gradient_color_51)"/>
          <path d="M663.2,169.51A30.85,30.85,0,0,1,652,183.08c-2.37,1.49-5.31,3.57-8,5.55l-.12.08-.09.06-.31.23c-1.7,1.3-5.51,4.57-5.51,4.57a5.53,5.53,0,0,1-1,.31l-.19.05a8.24,8.24,0,0,1-1.5.19,10,10,0,0,1-3.69-.54h-.05a10.41,10.41,0,0,1-1.26-.51c-.16-.06-.31-.14-.47-.21a50.39,50.39,0,0,1-6-3.59c-1.23-.84-2-1.45-2-1.45s1.34.08,3.27.11c4.37.09,11.74-.06,13.12-1.91,2-2.65,8.05-17.8,8.81-21.75s0-16.8,0-16.8-.38,9.76-1.23,12.79-7,16.2-12.44,20.84a33.6,33.6,0,0,1-11.72,6.34h0a3.43,3.43,0,0,1-2.34.11c-.82-.45-4.31-2.8-4.53-2.94h0a24.93,24.93,0,0,0-.69-6.95c0-.21-.09-.42-.14-.63s-.14-.58-.22-.89c-.89-3.51-2.48-8.51-5.63-10.72l-.1-.06a6,6,0,0,0-3.88-1h0a5.88,5.88,0,0,0-4.52,2.56l-.05.06a12.37,12.37,0,0,0-1.81,6.1l-.13-.25-.07-.13-5.82-10.58c.34.16,6.69,3.16,10.32,2.18s21.85-6.38,23.8-14.52,1.19-29.15,1.19-29.15-3,11.34-4.65,17-11,16.3-17.42,18.76a61,61,0,0,1-14.22,3.13l7.63-3s18.65-13.8,20-17.07S620.72,126,620.72,126s-3.8,12-7.74,15.17-24.1,14.4-28.08,14.27l-.94,0c-4-.26-10.51-1.42-11.32-1.57h-.08c-4.95-3.66-9.64-14.72-7.75-17.76,0,0,7.77,12.13,11.18,12.89s22.17-3.6,28.42-8,9.86-12.13,10.62-15,1.51-7.32,1.51-7.32a61.38,61.38,0,0,1-8.17,6c-5.13,3.22-22.14,11.74-25.18,11.74s-14.78-4.55-14.78-4.55l2.92-2.63.12-.1s2.08,3.49,3.6,3.77,6.25,3.32,11.93,0,17.81-8.8,19.63-11.64,6-14.13,6-14.13l25.84.74c10.85,5.58,13.1,12.06,13.1,12.06,1.9,8.72,7.2,21.79,9.67,31.26A66,66,0,0,1,663.2,169.51Z" transform="translate(-503.73 -77.21)" style="opacity: 0.9;mix-blend-mode: multiply;fill: url(#gradient_color_41-2)"/>
          <path d="M656.39,90.56a52,52,0,0,0-7.07-.89,12,12,0,0,0-7.2-11.11c-2.76-1.32-6.6-1.46-10.44-1.06A53.09,53.09,0,0,0,617,81.21c-1.39.88-6.19,6.44-7.2,11.24S611.3,105,611.3,105s5.05,8.84,9.47,12.63,21,7.33,27.41,4.42,16.68-14.15,16.42-19S657.91,91.06,656.39,90.56Zm-12.61,28.16c.49-.36,8.25-6.09,10.21-11.11a6.4,6.4,0,0,0,.32-1.18,14,14,0,0,0-.81-6.24l0-.14a32.43,32.43,0,0,0-1.21-3.13c0-.11-.09-.22-.14-.32-.9-2-1.76-3.45-2-3.81a.35.35,0,0,0,0-.08s6.57,1.76,7.7,3.15.51,11-1.39,14.91a7.38,7.38,0,0,1-2,2.26C650.86,116,644.19,118.57,643.78,118.72Z" transform="translate(-503.73 -77.21)" style="fill: url(#gradient_color_58)"/>
          <path d="M585,295.57s-3.54,9.85-6.32,20.46-7,17.43-8.43,18.44-9.63,6.07-11,6-9.76-11.75-11.37-16.67-3.13-43.3-3.88-49-4.36-19-4.36-19-10.91-4.41-13.64-8.71c-1.33-2.09-1.76-11.91-2.56-15.82-1.42-6.92-6.56-14.12-5.67-15.4,2-2.79,5.29,0,7.57,2.3s2.8,10,3.37,13c.82,2.59,4.65,2.62,5.79,1.67s5.33-13,6.84-21.55,5.31-23.51,7.2-23.89,2.77,6.17,2.14,12.56c-.36,3.76-3.13,12-3.84,15.58-.5,2.49,1.51,2.27,1.51,2.27s6.26-20.37,8.53-21.5,3.41,2.19,3.79,3.65-.95,4.31-.95,4.31-5.4,16-4.65,16.95c0,0,7.58-10.32,9.34-11.46s3.08-.92,3.27,1.53a8.49,8.49,0,0,1-1.33,4.72s-4.92,6.26-6.25,9.86c0,0,.2,5.22,2.46,4.16,1.83-.85,5.64-8,6.83-7.95,2.65.19,3.22,2.84,2.65,5.11s-3.22,5.5-4.93,7.39c0,0-8.15,12.32-10.23,15.16s-6.2,4-6.2,4a131.1,131.1,0,0,0,3.74,18.76c2.46,8.14,10,24.25,10,24.25s5-7.39,6.87-15C571.26,281.8,583.45,290.2,585,295.57Z" transform="translate(-503.73 -77.21)" style="fill: url(#gradient_color_340)"/>
          <path d="M526,247.13s8.19,5.18,14.3,3.88c0,0,7.71,3.69,12.13,1.8l-.9,6.67s-3.53,3.41-10.65,1.12l-1.24-4.76S529.7,252.24,526,247.13Z" transform="translate(-503.73 -77.21)" style="fill: url(#gradient_color_30)"/>
          <path d="M548.9,255.08s-25.79-38.84-32.6-52.67a5.73,5.73,0,0,1,3.4-3.51s26-8.63,32.23-8.91c0,0,18.19,36.86,24.64,50.32L575.24,243Z" transform="translate(-503.73 -77.21)" style="fill: url(#gradient_color_264)"/>
          <path d="M668.93,368.77s-11.93,10.8-32.88,12.31c-16.89,1.23-59.87-8.71-61.38-12.12l4.54-5.14s11.75-20.44,13.65-22.53,12.69-11.17,14-12.69,3-17.05,2.46-20.65c0,0-7.58-3.22-10-7.58a36.15,36.15,0,0,1-3.46-9.29,21.08,21.08,0,0,0-4.69,6.83c-1.89,4.35-3,11.55-3,11.55s-18.57-3.41-23.68-16.48l2.84-2.27s2.49-7,4.4-14.26h0a85.46,85.46,0,0,0,1.84-8.47c1.33-8.91,4.74-25.58,6.25-27.29s32.71-13.26,32.71-13.26a4.8,4.8,0,0,1,1.78-2.84c1.51-1.14,2.79,2.27,2.79,2.27s14.47,1.52,19.76.38,7.72-6.06,7.72-6.06h0c.31-.16,4.45-2.17,4.91,3.42,0,0,12.36,5.3,16.4,9.6a47.34,47.34,0,0,1,1,10.37,80.69,80.69,0,0,1-2.31,19.38c-4.29,18-14.4,42.5-14.4,52.35s15.41,47.5,15.41,47.5,3.6,1,4,2.05S668.93,368.77,668.93,368.77Z" transform="translate(-503.73 -77.21)" style="fill: url(#gradient_color_25)"/>
          <path d="M604,208.29a62.29,62.29,0,0,0,5-4.93c3.18-3.48,4.79-4.93,4.79-4.93l3.48,4.36S610.36,207.92,604,208.29Z" transform="translate(-503.73 -77.21)" style="fill: #bf5b71"/>
          <path d="M601.69,173.42a24.38,24.38,0,0,0,1.37,6.2c1.31,3.92,4.67,3.63,4.67,3.63v-2.64s-2,1.06-3.72-1.38a8.72,8.72,0,0,1-1.21-5.81Z" transform="translate(-503.73 -77.21)" style="fill: url(#gradient_color_325)"/>
          <path d="M600.42,170.26s3.05.89,5.83,6.57,2.13,10,2.13,10,0-3.41-2.64-8.27-4.58-5.12-4.58-5.12S598.74,172.28,600.42,170.26Z" transform="translate(-503.73 -77.21)" style="fill: url(#gradient_color_325-2)"/>
          <path d="M604.81,184.6a14.09,14.09,0,0,0,2.09,4.29,4,4,0,0,0,3.75,2L613,189S606.9,188.89,604.81,184.6Z" transform="translate(-503.73 -77.21)" style="fill: url(#gradient_color_67)"/>
          <path d="M600.44,166.85s3,.51,6.44,5.81a69.24,69.24,0,0,1,5.77,11.75s.68-7.24-1-12-5.53-8.29-6.87-8.14S600.44,166.85,600.44,166.85Z" transform="translate(-503.73 -77.21)" style="fill: url(#gradient_color_66)"/>
          <path d="M610.65,190.92s3.43-1.2,4-6.32a38,38,0,0,0,4.54,3S613.29,191.74,610.65,190.92Z" transform="translate(-503.73 -77.21)" style="fill: url(#gradient_color_45-5)"/>
          <path d="M664.6,103.06c.26,4.8-10,16-16.42,19s-23-.63-27.41-4.42S611.3,105,611.3,105s-2.53-7.71-1.52-12.51c0,0,1.88,7.71,4,11.5s12.51,10.1,12.51,10.1-5.18-11.11-5.3-15.28.63-13.52,1.76-15.16,8-4.63,8.88-5c-.8.47-6.93,4-7.87,6.15s1.14,14.78,4.17,18.31,18.45,3.54,22.23,4a5.72,5.72,0,0,0,4.11-.68,6.4,6.4,0,0,1-.32,1.18c-2,5-9.72,10.75-10.21,11.11.41-.15,7.08-2.72,10.65-5.69a41,41,0,0,0,6-3.9A13.35,13.35,0,0,0,664.6,103.06Z" transform="translate(-503.73 -77.21)" style="opacity: 0.9;mix-blend-mode: multiply;fill: url(#gradient_color_41-3)"/>
          <path d="M627.6,86.89c.12,2.66,7.95,11.06,13.13,13.3s12.78,0,12.78,0-1.91-5.45-3.43-7.48c0,0-8,3-11.11,2.77S627.6,86.89,627.6,86.89Z" transform="translate(-503.73 -77.21)" style="opacity: 0.9;mix-blend-mode: multiply;fill: url(#gradient_color_41-4)"/>
          <path d="M631.26,77.3S639.47,81,642,84.75s2.66,9.75,2.66,9.75.76-6,0-9.25a33.81,33.81,0,0,0-2.54-6.69S640,76.8,631.26,77.3Z" transform="translate(-503.73 -77.21)" style="opacity: 0.9;mix-blend-mode: multiply;fill: url(#gradient_color_41-5)"/>
          <path d="M665.87,234.18s-24-5.18-25.71-4.55-20,1.9-22,1.58-5.41-3.58-5.62-3.78c.21.12,3.4,2.09,4.8,2.33s15.35.5,19.52-.89,9.51-6.33,9.51-6.33l-1.79-1.37h0c.31-.16,4.45-2.17,4.91,3.42C649.47,224.58,661.83,229.88,665.87,234.18Z" transform="translate(-503.73 -77.21)" style="opacity: 0.9;mix-blend-mode: multiply;fill: url(#gradient_color_41-6)"/>
          <path d="M668.93,368.77s-9.2,10.42-32.88,12.31c-16.88,1.35-59.87-8.71-61.38-12.12l4.54-5.14s8.34,2.44,15.16,0c0,0,9.67-20.44,11.37-22.34s7.58-7.76,9.29-9.66-1.46-21.35-1.46-21.35-2-3.65-4.23-2.52c0,0-7.58-3.22-10-7.58a36.15,36.15,0,0,1-3.46-9.29,21.08,21.08,0,0,0-4.69,6.83c-1.89,4.35-3,11.55-3,11.55s-18.57-3.41-23.68-16.48l2.84-2.27s2.49-7,4.4-14.26h0L569,292.92c2.08,5.81,15,9.26,15,9.26,8.85-5.05,20.56-27.48,20.56-27.48a13.21,13.21,0,0,1-.17,4.41c-.4,1.2-1.82,4.71-1.82,4.71l11-1.64-8,5.05s10.57,15.78,11.45,19.7,5,18.69,8.61,20.42c5.88,2.83,12.28-1.72,15.82-6.9s21.6-53.56,21.6-53.56-15.41,19.71-18.55,21.73c-2.93,1.89-13,5.56-14.29,6,1-.42,7.64-3.19,9.91-4.24,2.45-1.14,9.92-8.72,14.34-15.28s12.4-30.57,12.4-30.57h0a80.69,80.69,0,0,1-2.31,19.38c-4.29,18-14.4,42.5-14.4,52.35s15.41,47.5,15.41,47.5a44.38,44.38,0,0,1-21.48,12.13c-9.5,2.33-28.16,1-28.16,1s14.49,3.07,27.91.88c17-2.78,25.71-12,25.71-12C670,366.87,668.93,368.77,668.93,368.77Z" transform="translate(-503.73 -77.21)" style="opacity: 0.6900000000000001;mix-blend-mode: multiply;fill: url(#gradient_color_41-7)"/>
          <polygon points="92.11 213.87 99.4 202.67 98.85 206.61 109.84 204.97 93 217.12 92.11 213.87" style="fill: #8b92ab;opacity: 0.9;mix-blend-mode: multiply"/>
          <path d="M614.2,231.21c-1.11,1.37-22,13.64-23.32,14.46l-.68.89s-11,31.83-12.12,33.32-9,11.65-9,11.65c-1.64-.32-1.76-.82-1.76-.82,3.6-8.14,12.5-50,12.5-50a22.66,22.66,0,0,1,3.41-1.79c8.61-3.9,29.31-11.46,29.31-11.46S615.36,229.8,614.2,231.21Z" transform="translate(-503.73 -77.21)" style="mix-blend-mode: soft-light;fill: url(#gradient_color_41-8)"/>
          <path d="M614.2,231.21c-1.11,1.37-21.25,13.67-22.59,14.49l-.34.21a61.81,61.81,0,0,0-10.35-5l2.27-2c8.61-3.9,29.31-11.46,29.31-11.46S615.36,229.8,614.2,231.21Z" transform="translate(-503.73 -77.21)" style="mix-blend-mode: soft-light;fill: url(#gradient_color_41-9)"/>
          <path d="M595.84,291.08s7.44-12.32,7.77-14.68-3.83-22-7.77-26.43-14-8.54-16.06-9.29c0,0,12.45,3.86,17.12,8.91s7.4,22.74,7.81,26.15-2.13,8.08-2.13,8.08Z" transform="translate(-503.73 -77.21)" style="opacity: 0.9;mix-blend-mode: multiply;fill: url(#gradient_color_41-10)"/>
          <path d="M519.7,198.9s16.24,34.21,31,53l25.91-11.55L551.93,190S539,192,519.7,198.9Z" transform="translate(-503.73 -77.21)" style="fill: url(#gradient_color_160)"/>
          <polygon points="45.17 177.87 46.93 174.65 72.83 163.09 71.51 165.75 45.17 177.87" style="fill: url(#gradient_color_25-2)"/>
          <path d="M523.32,203.61c-.93,1.62,24.45,43.58,25.58,44.08s24.38-8.84,24.89-9.47-19.71-43.59-20.85-44.09S524.1,202.27,523.32,203.61Z" transform="translate(-503.73 -77.21)" style="fill: url(#gradient_color_9)"/>
          <path d="M612.79,226.47a24,24,0,0,0,4.27,2.4c2.39,1,15.48.59,18.94-.31s4.16-2.09,4.16-2.09a21.13,21.13,0,0,1-7.29,1.5c-4,.05-15-.15-15.92-.54s-1.32-2.5-1.32-2.5S613.87,223.85,612.79,226.47Z" transform="translate(-503.73 -77.21)" style="mix-blend-mode: soft-light;fill: url(#gradient_color_41-11)"/>
          <path d="M564.39,296.77s9.41,12.31,9.41,32.45a106.19,106.19,0,0,0,7.36-21.83s-8.13-4.05-10.59-6.2a38.46,38.46,0,0,1-5.14-6.09Z" transform="translate(-503.73 -77.21)" style="fill: #bf5b71"/>
          <path d="M553.59,316.48s.81-6.26,1.66-7.59,7.86-7.36,9.14-12.12L557.9,282s1,11.94.83,16.78-5.85,9.76-5.66,10.7S553.59,316.48,553.59,316.48Z" transform="translate(-503.73 -77.21)" style="fill: #bf5b71"/>
          <path d="M529.11,232.26s4.26,3.69,6.4,5.83a73.52,73.52,0,0,1,5.31,6.45l1.44.42-7.78-12.08A10.49,10.49,0,0,1,529.11,232.26Z" transform="translate(-503.73 -77.21)" style="fill: url(#gradient_color_45-6)"/>
          <path d="M568,152.29s3.11,3.7,3.68,3.89,13.2,1.39,17.75.88,19.66-9,19.66-9-9.68,8-11.07,8.72a29.79,29.79,0,0,1-8.53,2.69c-3.54.47-19-2.31-20.15-3.32S568,152.29,568,152.29Z" transform="translate(-503.73 -77.21)" style="fill: url(#gradient_color_143)"/>
          <path d="M571.45,129.19s8.9-10,13.58-14.13,23.41-13.49,23.41-13.49-19.12,3.63-24.3,6.29S574.3,121.72,571.45,129.19Z" transform="translate(-503.73 -77.21)" style="mix-blend-mode: soft-light;fill: url(#gradient_color_146)"/>
          <path d="M565.27,136.79s7.38,11.38,11.3,12.26,25.67-4.71,30-9.79,7.58-9.45,8.42-13.21c0,0-4.39,10.74-14.59,13.35-6.81,1.74-19.2,5.22-24.51,4.46S565.27,136.79,565.27,136.79Z" transform="translate(-503.73 -77.21)" style="mix-blend-mode: soft-light;fill: url(#gradient_color_41-12)"/>
          <path d="M617,81.21s-5.92,5.83-6.5,10.55C610.2,94,613.34,103,613.82,104s7.63,6.87,7.63,6.87S614.85,96.49,615,92s3.25-9.22,6.14-10.74,5.8-3,5.8-3S620.14,79.69,617,81.21Z" transform="translate(-503.73 -77.21)" style="mix-blend-mode: soft-light;fill: url(#gradient_color_147)"/>
          <path d="M594.12,340.05s4.55.35,11.62,1.43l9.67-10.79s-2.59-4.93-8.53-2.09Z" transform="translate(-503.73 -77.21)" style="mix-blend-mode: screen;fill: url(#gradient_color_152)"/>
          <path d="M621.17,187.49s4.28,14,6.55,17.38,8.67,7.58,9.36,10,4.85,9.66,4.85,9.66-3-10.8-4-13.07-8.33-6.26-9.85-8.91-3.75-13.94-3.75-13.94l2.43-2.64S621.82,185.83,621.17,187.49Z" transform="translate(-503.73 -77.21)" style="fill: url(#gradient_color_65)"/>
          <path d="M640.16,191.45s3.35,10.2,3.6,12.48-.69,7.4-.69,7.4,2.65-6.84,2.65-8.54-2.61-4-3.62-6.63,0-6.17,0-6.17Z" transform="translate(-503.73 -77.21)" style="fill: url(#gradient_color_65-2)"/>
          <path d="M620.77,117.59a39.05,39.05,0,0,0,14,7.18c10.38,2.78,17.49-2.15,17.49-2.15l-.7-2.63a25,25,0,0,1-9,3C637.66,123.56,626.71,120.87,620.77,117.59Z" transform="translate(-503.73 -77.21)" style="fill: #777f9c;opacity: 0.9;mix-blend-mode: multiply"/>
          <path d="M612.2,171.62s11.76,6.9,14.15,6.88,6.14-5.69,9.33-11.41c3.1-5.54,2.45-33,2.45-33s2.77,27.2,2,29.24-2.74,15-7.46,18.19-10,6-13.51,6l-4.54-3A83.17,83.17,0,0,0,612.2,171.62Z" transform="translate(-503.73 -77.21)" style="opacity: 0.5;mix-blend-mode: multiply;fill: url(#gradient_color_41-13)"/>
          <path d="M623.55,189.53s11.57-.15,15.17-2.1,15.46-7.69,19.63-11.48,4.78-12.52,4.78-12.52l.07,6.08s-4.4,8.86-9,12-11.83,7.83-14,9.95c0,0-3.22,2.93-5.43,3S623.55,189.53,623.55,189.53Z" transform="translate(-503.73 -77.21)" style="opacity: 0.5;mix-blend-mode: multiply;fill: url(#gradient_color_41-14)"/>
          <path d="M629.82,192.85s2.45,7.67,3.78,10.13,4.32,8,5.49,11.9,2.84,16.33,2.84,16.33.38-10.8,0-16.48c0,0-4.78-9.1-4.85-14s3.08-9.26,3.08-9.26l-6,1.68Z" transform="translate(-503.73 -77.21)" style="fill: url(#gradient_color_65-3)"/>
          <path d="M522.21,207.71s4.27,8,5.88,10.52l-1,.6A31.85,31.85,0,0,1,521,208.6Z" transform="translate(-503.73 -77.21)" style="fill: url(#gradient_color_160-2)"/>
          <path d="M527.71,219.46l.76-.57c2.31,4,2.23,3.85,3.22,5.5l-.76.57A17.06,17.06,0,0,1,527.71,219.46Z" transform="translate(-503.73 -77.21)" style="fill: url(#gradient_color_160-3)"/>
          <path d="M527.71,219.46l.48-.35s1.74,4,3.31,5.42l-.57.43A13.11,13.11,0,0,1,527.71,219.46Z" transform="translate(-503.73 -77.21)" style="fill: #d9d2f9"/>
          <path d="M521,208.6l.7-.52a45.85,45.85,0,0,0,6,10.39l-.57.36A33.27,33.27,0,0,1,521,208.6Z" transform="translate(-503.73 -77.21)" style="fill: #d9d2f9"/>
          <path d="M529.7,197.69l.44.8s8.72-2.94,14.21-4.13l-.37-.83A113.91,113.91,0,0,0,529.7,197.69Z" transform="translate(-503.73 -77.21)" style="fill: url(#gradient_color_171)"/>
          <path d="M530.14,198.49s11.7-3,14.21-4.13A90.56,90.56,0,0,0,530.14,198.49Z" transform="translate(-503.73 -77.21)" style="fill: url(#gradient_color_264-2)"/>
          <polygon points="57.42 167.18 58.06 168.13 62.48 166.12 62.12 165.37 57.42 167.18" style="fill: url(#gradient_color_174)"/>
          <path d="M627.6,86.89a37.79,37.79,0,0,0,10,11.47c6.29,4.48,14.26-2.3,14.26-2.3l-1.79-3.35a23.41,23.41,0,0,1-10.35,2.78C634.2,95.49,627.6,86.89,627.6,86.89Z" transform="translate(-503.73 -77.21)" style="opacity: 0.5;mix-blend-mode: multiply;fill: url(#gradient_color_41-15)"/>
          <path d="M656.72,370.76s4.79-3.86,4.21-7.23c-.93-5.49-6-22.9-8.71-32a90.31,90.31,0,0,1-3.6-16.68c0-.75,9.82-29.92,9.82-29.92s-7.88,23.6-8.21,30.59,10.4,38.13,15.15,47.67A36.19,36.19,0,0,1,656.72,370.76Z" transform="translate(-503.73 -77.21)" style="opacity: 0.6900000000000001;mix-blend-mode: multiply;fill: url(#gradient_color_41-16)"/>
          <path d="M609.34,308s-.78,18-2.13,19.77-11.73,9.68-14.35,13.57-11.94,19.57-11.94,19.57,12.39-19.5,14.92-20.42,14.41-10.2,14.92-13,.87-19.21.87-19.21S610.33,307.32,609.34,308Z" transform="translate(-503.73 -77.21)" style="fill: url(#gradient_color_334)"/>
          <path d="M578,374.28a75.55,75.55,0,0,0-3.06,14.51c-.76,7.58,0,11.21,0,11.21h-4.61S571.1,383.77,578,374.28Z" transform="translate(-503.73 -77.21)" style="fill: url(#gradient_color_336)"/>
          <path d="M550.58,329.22s4.5,3.1,6.14,5.38a6.64,6.64,0,0,1,1.16,4.78A66.47,66.47,0,0,1,550.58,329.22Z" transform="translate(-503.73 -77.21)" style="fill: #bf5b71"/>
          <path d="M555.91,333.64a34.72,34.72,0,0,0,2,4.75c.67.95,3.58-.45,3.58-.45S557.25,335.45,555.91,333.64Z" transform="translate(-503.73 -77.21)" style="fill: #ffa693"/>
          <path d="M599,332.71a12.4,12.4,0,0,0,2.27-1.39c1.14-.89,11.26,2.27,12.26,3.28s19.45,4.12,33,6.88c0,0-10.76-.88-20.9-2.1s-14-3.2-14-3.2A20.52,20.52,0,0,0,599,332.71Z" transform="translate(-503.73 -77.21)" style="fill: url(#gradient_color_350)"/>
          <path d="M599,335v-2.3a16.86,16.86,0,0,1,10.65,2.3c5.71,3.25,29.6,5.82,29.6,5.82s-18.15-.68-25.35-2.11C608.18,337.57,604.72,334.85,599,335Z" transform="translate(-503.73 -77.21)" style="fill: #542a8d"/>
          <path d="M575.5,368a10.65,10.65,0,0,0,4.47,2c2.83.56,13.13,3.31,19.57,4.31S616,376.92,616,376.92s-11.83-2.79-20.13-5.69-17.28-6.67-17.28-6.67A36.22,36.22,0,0,0,575.5,368Z" transform="translate(-503.73 -77.21)" style="fill: url(#gradient_color_350-2)"/>
          <path d="M642.1,190s9.17-6.74,12.58-9.81c2.77-2.5,6.13-10.8,6.76-13.83s-3.14-24.73-5.18-30.87c0,0,8.71,18.88,6.94,34,0,0-1.18,6.13-11,13.89A72.77,72.77,0,0,1,642.1,190Z" transform="translate(-503.73 -77.21)" style="fill: url(#gradient_color_143-2)"/>
          <path d="M641.93,214.73a49.33,49.33,0,0,0-1,5.11c-.31,2.32,1,11.37,1,11.37S642.8,218.23,641.93,214.73Z" transform="translate(-503.73 -77.21)" style="fill: url(#gradient_color_143-3)"/>
          <path d="M647.66,220.93s.9,1.09,0,4c0,0,14.69,5.61,18.21,9.27,0,0-4-5.24-16.4-9.6A3.42,3.42,0,0,0,647.66,220.93Z" transform="translate(-503.73 -77.21)" style="fill: url(#gradient_color_143-4)"/>
          <g style="mix-blend-mode: multiply">
            <path d="M533.81,206.56c.86,2,.37,4.12-1.11,4.77s-3.39-.43-4.26-2.42-.37-4.11,1.11-4.76S532.94,204.58,533.81,206.56Z" transform="translate(-503.73 -77.21)" style="fill: #cfe0ff"/>
            <path d="M531.78,211.64a3.08,3.08,0,0,1-1.5-.42,4.74,4.74,0,0,1-1.95-2.26c-.9-2-.37-4.25,1.17-4.93s3.53.44,4.42,2.48h0a4.75,4.75,0,0,1,.33,3,2.7,2.7,0,0,1-1.5,2A2.31,2.31,0,0,1,531.78,211.64Zm-1.32-7.56a2.18,2.18,0,0,0-.86.18c-1.41.62-1.88,2.69-1,4.6A4.43,4.43,0,0,0,530.4,211a2.32,2.32,0,0,0,3.61-1.58,4.56,4.56,0,0,0-.32-2.81A3.87,3.87,0,0,0,530.46,204.08Z" transform="translate(-503.73 -77.21)" style="fill: #95a2ff"/>
          </g>
          <g style="mix-blend-mode: multiply">
            <path d="M553.7,240.75c.59,1.34.25,2.78-.75,3.22s-2.28-.29-2.87-1.63-.25-2.78.75-3.21S553.12,239.42,553.7,240.75Z" transform="translate(-503.73 -77.21)" style="fill: #cfe0ff"/>
            <path d="M552.34,244.22a2.81,2.81,0,0,1-2.37-1.83,3.19,3.19,0,0,1-.23-2,1.88,1.88,0,0,1,1-1.36c1.06-.47,2.42.3,3,1.7a3.25,3.25,0,0,1,.22,2,1.86,1.86,0,0,1-1,1.35A1.51,1.51,0,0,1,552.34,244.22Zm-.89-5.1a1.39,1.39,0,0,0-.57.12,1.65,1.65,0,0,0-.89,1.18,2.93,2.93,0,0,0,.21,1.87c.55,1.27,1.77,2,2.7,1.56a1.6,1.6,0,0,0,.9-1.18,3,3,0,0,0-.21-1.87A2.58,2.58,0,0,0,551.45,239.12Z" transform="translate(-503.73 -77.21)" style="fill: #95a2ff"/>
          </g>
          <g style="mix-blend-mode: multiply">
            <path d="M570.07,234.75c.59,1.34.25,2.78-.75,3.22s-2.28-.29-2.87-1.63-.25-2.78.75-3.22S569.49,233.42,570.07,234.75Z" transform="translate(-503.73 -77.21)" style="fill: #cfe0ff"/>
            <path d="M568.71,238.22a2.18,2.18,0,0,1-1-.29,3.26,3.26,0,0,1-1.33-1.54,3.34,3.34,0,0,1-.23-2,1.88,1.88,0,0,1,1-1.36c1.06-.47,2.43.3,3,1.69h0a3.37,3.37,0,0,1,.23,2,1.92,1.92,0,0,1-1,1.35A1.66,1.66,0,0,1,568.71,238.22Zm-.89-5.1a1.39,1.39,0,0,0-.57.12,1.63,1.63,0,0,0-.89,1.18,3.17,3.17,0,0,0,1.44,3.29,1.52,1.52,0,0,0,2.37-1,3,3,0,0,0-.21-1.87h0A2.58,2.58,0,0,0,567.82,233.12Z" transform="translate(-503.73 -77.21)" style="fill: #95a2ff"/>
          </g>
          <path d="M533.73,202.66A112.37,112.37,0,0,1,552.62,197l.57,1.11s-9.6,2.29-19,5.68Z" transform="translate(-503.73 -77.21)" style="fill: #cfe0ff;mix-blend-mode: multiply"/>
          <path d="M534.87,205.09l.51,1.11s7.64-2.65,13.17-4.07l-.42-1.24S540.84,202.88,534.87,205.09Z" transform="translate(-503.73 -77.21)" style="fill: #cfe0ff;mix-blend-mode: multiply"/>
          <g style="mix-blend-mode: multiply">
            <path d="M535.39,215.49c4-1.49,12.76-4.69,20-6.75a2,2,0,0,1,2.37,1c1.9,3.51,6.82,12.66,9.59,18.62a2,2,0,0,1-1.18,2.79l-18.22,6.43a2,2,0,0,1-2.39-.8c-2.17-3.29-7.81-12-11.25-18.38A2,2,0,0,1,535.39,215.49Z" transform="translate(-503.73 -77.21)" style="fill: #cfe0ff"/>
            <path d="M547.25,237.8a2.17,2.17,0,0,1-1.81-1c-2.24-3.41-7.83-12-11.25-18.39a2.22,2.22,0,0,1-.12-1.8,2.18,2.18,0,0,1,1.27-1.27l0,.12,0-.12c3.56-1.33,12.64-4.65,20-6.75a2.16,2.16,0,0,1,2.52,1c2,3.64,6.84,12.72,9.59,18.63a2.17,2.17,0,0,1-1.26,3L548,237.68A2.28,2.28,0,0,1,547.25,237.8Zm8.71-29a1.68,1.68,0,0,0-.54.08c-7.36,2.1-16.43,5.42-20,6.75a1.88,1.88,0,0,0-1.12,1.12,1.92,1.92,0,0,0,.1,1.59c3.42,6.35,9,15,11.24,18.37a1.91,1.91,0,0,0,2.25.75L566.12,231a1.94,1.94,0,0,0,1.14-1.07,1.9,1.9,0,0,0,0-1.55c-2.75-5.9-7.62-15-9.59-18.61A1.9,1.9,0,0,0,556,208.78Z" transform="translate(-503.73 -77.21)" style="fill: #95a2ff"/>
          </g>
          <polygon points="63.23 157.36 63.23 157.96 66.23 159.31 66.33 158.68 63.23 157.36" style="fill: #fff"/>
          <polygon points="64.78 156.44 65.16 156.63 64.78 160.23 64.24 160.07 64.78 156.44" style="fill: #fff"/>
          <path d="M551.77,241.13s0-.87.63-.76.63,1.58.17,2.29a3.33,3.33,0,0,1-1.42-.33c-.63-.35-.6-1-.28-1.22S551.77,241.13,551.77,241.13Z" transform="translate(-503.73 -77.21)" style="fill: #fff"/>
          <polygon points="58.27 138.76 60.15 139.12 59.78 141.44 58.9 140.88 59.21 139.43 58.02 139.12 58.27 138.76" style="fill: #cfe0ff;mix-blend-mode: multiply"/>
          <path d="M557.24,202.13l-18.83,29.08s7.29,13,10.49,16.48l16.48-28.58Z" transform="translate(-503.73 -77.21)" style="mix-blend-mode: soft-light;fill: url(#gradient_color_13)"/>
        </g>
        <path d="M529.34,145.1c-8.34,7.24,2.3,28.25,19.27,32.45,13.57,3.36,21.2-2.82,19.39-11.74C564.85,150.21,539.79,136,529.34,145.1Z" transform="translate(-503.73 -77.21)" style="fill: url(#gradient_color_160-5)"/>
        <path d="M532.89,190c-2.12-.78-5.57-5.58-5.11-9.71.78-6.89,8.48-5.46,11-.3C541.56,185.58,538.52,192,532.89,190Z" transform="translate(-503.73 -77.21)" style="fill: url(#gradient_color_34-3)"/>
        <g style="mix-blend-mode: multiply">
          <path d="M544.72,168.89s-7.63-3.5-8.73-9.26,8-10.42,13.23-8.87c6,1.77,7.91,6.44,7.57,9.07s-13.14,6.35-13.14,6.35Z" transform="translate(-503.73 -77.21)" style="fill: #cfe0ff"/>
          <path d="M545,169.18l-.33-.15c-.08,0-7.71-3.6-8.82-9.37-.39-2.06.47-4.17,2.43-5.95,3-2.68,7.78-4,11-3.09,6.22,1.83,8,6.63,7.67,9.23s-11.55,6-13.09,6.43Zm2-18.57a13.42,13.42,0,0,0-8.52,3.32c-1.88,1.71-2.71,3.72-2.34,5.68,1,4.92,6.82,8.21,8.31,9l-1-2.5.15-.05c3.53-1,12.76-4.15,13-6.23.32-2.5-1.42-7.13-7.46-8.91A8.05,8.05,0,0,0,547,150.61Z" transform="translate(-503.73 -77.21)" style="fill: #95a2ff"/>
        </g>
        <g style="opacity: 0.5;mix-blend-mode: multiply">
          <path d="M539.66,159.23l-.22-.21a25.69,25.69,0,0,1,10-5.68l.09.28A25.14,25.14,0,0,0,539.66,159.23Z" transform="translate(-503.73 -77.21)" style="fill: #95a2ff"/>
        </g>
        <g style="opacity: 0.5;mix-blend-mode: multiply">
          <path d="M542,161.83l-.17-.25a78.9,78.9,0,0,1,10.56-5.9l.12.27A79.15,79.15,0,0,0,542,161.83Z" transform="translate(-503.73 -77.21)" style="fill: #95a2ff"/>
        </g>
        <g style="mix-blend-mode: multiply">
          <path d="M531.84,178.75c-1.76.91-1.88,4.09-.52,6,1.77,2.53,4,2.44,5.12,1C538.38,183.34,535.6,176.81,531.84,178.75Z" transform="translate(-503.73 -77.21)" style="fill: #cfe0ff"/>
          <path d="M534.47,186.88h-.07a4.17,4.17,0,0,1-3.15-2,5.42,5.42,0,0,1-.8-4.25,2.79,2.79,0,0,1,1.34-1.9h0a3.06,3.06,0,0,1,4,1c1.36,1.65,2,4.66.77,6.21A2.55,2.55,0,0,1,534.47,186.88Zm-2.59-8h0a2.66,2.66,0,0,0-1.27,1.79,5.38,5.38,0,0,0,.78,4.11,4,4,0,0,0,3,2h.06a2.43,2.43,0,0,0,1.91-.94c1.16-1.49.55-4.39-.78-6a2.88,2.88,0,0,0-3.72-.94Z" transform="translate(-503.73 -77.21)" style="fill: #95a2ff"/>
        </g>
        <g style="opacity: 0.5;mix-blend-mode: multiply">
          <polygon points="30.84 107.06 28.64 105.97 28.74 105.78 30.69 106.73 31.32 103.64 31.53 103.69 30.84 107.06" style="fill: #95a2ff"/>
        </g>
      </g>
    </g>
  </g>
</svg>
